{
  "schedule": {
    "MONDAY": [{
        "id": 0,
        "state": "1",
        "conflicts": [
          {
            "message": "Sala w tym czasie jest zajęta przez IS grupa A-2: Fizyka I",
            "type": 2
          }
        ]
      },
      {
        "id": 1,
        "state": "2"
      },
      {
        "id": 2,
        "state": "2"
      },
      {
        "id": 3,
        "state": "1",
        "conflicts": [
          {
            "message": "Prowadzący mgr inż. W. Szczepan ma w tym czasie zajęcia z IS grupa A-1: CAD",
            "type": 1
          }
        ]
      },
      {
        "id": 4,
        "state": "1",
        "conflicts": [
          {
            "message": "Sala w tym czasie jest zajęta przez IS grupa A-2: Fizyka I",
            "type": 2
          }
        ]
      },
      {
        "id": 5,
        "state": "2"
      },
      {
        "id": 6,
        "state": "2"
      }
    ],
    "TUESDAY": [{
        "id": 0,
        "state": "2"
      },
      {
        "id": 1,
        "state": "2"
      },
      {
        "id": 2,
        "state": "2"
      },
      {
        "id": 3,
        "state": "2"
      },
      {
        "id": 4,
        "state": "2"
      },
      {
        "id": 5,
        "state": "2"
      },
      {
        "id": 6,
        "state": "2"
      }
    ],
    "WEDNESDAY": [{
        "id": 0,
        "state": "1",
        "conflicts": [
          {
            "message": "Sala w tym czasie jest zajęta przez IS grupa A-2: Fizyka I",
            "type": 2
          }
        ]
      },
      {
        "id": 1,
        "state": "1",
        "conflicts": [
          {
            "message": "Sala w tym czasie jest zajęta przez IS grupa A-2: Fizyka I",
            "type": 2
          }
        ]
      },
      {
        "id": 2,
        "state": "2"
      },
      {
        "id": 3,
        "state": "1",
        "conflicts": [
          {
            "message": "Sala w tym czasie jest zajęta przez IS grupa A-2: Fizyka I",
            "type": 2
          }
        ]
      },
      {
        "id": 4,
        "state": "1",
        "conflicts": [
          {
            "message": "Sala w tym czasie jest zajęta przez IS grupa A-2: Fizyka I",
            "type": 2
          }
        ]
      },
      {
        "id": 5,
        "state": "2"
      },
      {
        "id": 6,
        "state": "2"
      }
    ],
    "THURSDAY": [{
        "id": 0,
        "state": "1",
        "conflicts": [
          {
            "message": "Sala w tym czasie jest zajęta przez IS grupa A-2: Fizyka I",
            "type": 2
          }
        ]
      },
      {
        "id": 1,
        "state": "1",
        "conflicts": [
          {
            "message": "Sala w tym czasie jest zajęta przez IS grupa A-2: Fizyka I",
            "type": 2
          }
        ]
      },
      {
        "id": 2,
        "state": "2"
      },
      {
        "id": 3,
        "state": "1",
        "conflicts": [
          {
            "message": "Sala w tym czasie jest zajęta przez IS grupa A-2: Fizyka I",
            "type": 2
          }
        ]
      },
      {
        "id": 4,
        "state": "1",
        "conflicts": [
          {
            "message": "Sala w tym czasie jest zajęta przez IS grupa A-2: Fizyka I",
            "type": 2
          }
        ]
      },
      {
        "id": 5,
        "state": "2"
      },
      {
        "id": 6,
        "state": "2"
      }
    ],
    "FRIDAY": [{
        "id": 0,
        "state": "1",
        "conflicts": [
          {
            "message": "Sala w tym czasie jest zajęta przez IS grupa A-2: Fizyka I",
            "type": 2
          }
        ]
      },
      {
        "id": 1,
        "state": "2"
      },
      {
        "id": 2,
        "state": "2"
      },
      {
        "id": 3,
        "state": "2"
      },
      {
        "id": 4,
        "state": "1",
        "conflicts": [
          {
            "message": "Sala w tym czasie jest zajęta przez IS grupa A-2: Fizyka I",
            "type": 2
          }
        ]
      },
      {
        "id": 5,
        "state": "1",
        "conflicts": [
          {
            "message": "Sala w tym czasie jest zajęta przez IS grupa A-2: Fizyka I",
            "type": 2
          }
        ]
      },
      {
        "id": 6,
        "state": "1",
        "conflicts": [
          {
            "message": "Sala w tym czasie jest zajęta przez IS grupa A-2: Fizyka I",
            "type": 2
          }
        ]
      }
    ]
  }
}
