{
  "departmentId": "0",
  "id": "1",
  "name": "Inzynieria Materiałowa",
  "majorType": [
    "I stopień", "II stopień"
  ],
  "majorMode": [
    "Stacjonarne"
  ],
  "groups": [{
      "id": "0",
      "majorId": "1",
      "majorName": "Inzynieria Materiałowa",
      "students": [],
      "type": "I stopień",
      "mode": "Stacjonarne",
      "year": 1,
      "semester": 1
    },
    {
      "id": "1",
      "majorId": "1",
      "majorName": "Inzynieria Materiałowa",
      "students": [],
      "type": "I stopień",
      "mode": "Stacjonarne",
      "year": 2,
      "semester": 3
    },
    {
      "id": "2",
      "majorId": "1",
      "majorName": "Inzynieria Materiałowa",
      "students": [],
      "type": "I stopień",
      "mode": "Stacjonarne",
      "year": 3,
      "semester": 5
    }
  ]
}
