{
  "students": [{
      "groupMajorId": "5c654a2caf24142948ec65a6",
      "major": "5c6541d6635e0509c8c1ab6b",
      "index": "000000",
      "firstName": "Anna",
      "lastName": "Kwaśniewska",
      "pesel": "00000000000",
      "departmentId": "5c6431f49132f3266097476d"

    },
    {
      "groupMajorId": "5c654a2caf24142948ec65a6",
      "major": "5c6541d6635e0509c8c1ab6b",
      "index": "000001",
      "firstName": "Maria",
      "lastName": "Auguścik",
      "pesel": "00000000000",
      "departmentId": "5c6431f49132f3266097476d"

    },
    {
      "groupMajorId": "5c654a2caf24142948ec65a6",
      "major": "5c6541d6635e0509c8c1ab6b",
      "index": "000002",
      "firstName": "Katarzyna",
      "lastName": "Grabarczyk",
      "pesel": "00000000000",
      "departmentId": "5c6431f49132f3266097476d"

    },
    {
      "groupMajorId": "5c654a2caf24142948ec65a6",
      "major": "5c6541d6635e0509c8c1ab6b",
      "index": "000003",
      "firstName": "Małgorzata",
      "lastName": "Czapla",
      "pesel": "00000000000",
      "departmentId": "5c6431f49132f3266097476d"

    },
    {
      "groupMajorId": "5c654a2caf24142948ec65a6",
      "major": "5c6541d6635e0509c8c1ab6b",
      "index": "000004",
      "firstName": "Agnieszka",
      "lastName": "Rzepka",
      "pesel": "00000000000",
      "departmentId": "5c6431f49132f3266097476d"

    },
    {
      "groupMajorId": "5c654a2caf24142948ec65a6",
      "major": "5c6541d6635e0509c8c1ab6b",
      "index": "000005",
      "firstName": "Barbara",
      "lastName": "Chełstowska",
      "pesel": "00000000000",
      "departmentId": "5c6431f49132f3266097476d"

    },
    {
      "groupMajorId": "5c654a2caf24142948ec65a6",
      "major": "5c6541d6635e0509c8c1ab6b",
      "index": "000006",
      "firstName": "Ewa",
      "lastName": "Przywara",
      "pesel": "00000000000",
      "departmentId": "5c6431f49132f3266097476d"

    },
    {
      "groupMajorId": "5c654a2caf24142948ec65a6",
      "major": "5c6541d6635e0509c8c1ab6b",
      "index": "000007",
      "firstName": "Elżbieta",
      "lastName": "Polek",
      "pesel": "00000000000",
      "departmentId": "5c6431f49132f3266097476d"

    },
    {
      "groupMajorId": "5c654a2caf24142948ec65a6",
      "major": "5c6541d6635e0509c8c1ab6b",
      "index": "000008",
      "firstName": "Zofia",
      "lastName": "Cierpisz",
      "pesel": "00000000000",
      "departmentId": "5c6431f49132f3266097476d"

    },
    {
      "groupMajorId": "5c654a2caf24142948ec65a6",
      "major": "5c6541d6635e0509c8c1ab6b",
      "index": "000009",
      "firstName": "Janina",
      "lastName": "Bożyk",
      "pesel": "00000000000",
      "departmentId": "5c6431f49132f3266097476d"

    },
    {
      "groupMajorId": "5c654a2caf24142948ec65a6",
      "major": "5c6541d6635e0509c8c1ab6b",
      "index": "000010",
      "firstName": "Teresa",
      "lastName": "Musiał",
      "pesel": "00000000000",
      "departmentId": "5c6431f49132f3266097476d"

    },
    {
      "groupMajorId": "5c654a2caf24142948ec65a6",
      "major": "5c6541d6635e0509c8c1ab6b",
      "index": "000011",
      "firstName": "Joanna",
      "lastName": "Rybczyńska",
      "pesel": "00000000000",
      "departmentId": "5c6431f49132f3266097476d"

    },
    {
      "groupMajorId": "5c654a2caf24142948ec65a6",
      "major": "5c6541d6635e0509c8c1ab6b",
      "index": "000012",
      "firstName": "Magdalena",
      "lastName": "Chwiałkowska",
      "pesel": "00000000000",
      "departmentId": "5c6431f49132f3266097476d"

    },
    {
      "groupMajorId": "5c654a2caf24142948ec65a6",
      "major": "5c6541d6635e0509c8c1ab6b",
      "index": "000013",
      "firstName": "Monika",
      "lastName": "Wypych",
      "pesel": "00000000000",
      "departmentId": "5c6431f49132f3266097476d"

    },
    {
      "groupMajorId": "5c654a2caf24142948ec65a6",
      "major": "5c6541d6635e0509c8c1ab6b",
      "index": "000014",
      "firstName": "Jadwiga",
      "lastName": "Rogaczewski",
      "pesel": "00000000000",
      "departmentId": "5c6431f49132f3266097476d"

    },
    {
      "groupMajorId": "5c654a2caf24142948ec65a6",
      "major": "5c6541d6635e0509c8c1ab6b",
      "index": "000015",
      "firstName": "Danuta",
      "lastName": "Bojar",
      "pesel": "00000000000",
      "departmentId": "5c6431f49132f3266097476d"

    },
    {
      "groupMajorId": "5c654a2caf24142948ec65a6",
      "major": "5c6541d6635e0509c8c1ab6b",
      "index": "000016",
      "firstName": "Irena",
      "lastName": "Kalus",
      "pesel": "00000000000",
      "departmentId": "5c6431f49132f3266097476d"

    },
    {
      "groupMajorId": "5c654a2caf24142948ec65a6",
      "major": "5c6541d6635e0509c8c1ab6b",
      "index": "000017",
      "firstName": "Halina",
      "lastName": "Ruda",
      "pesel": "00000000000",
      "departmentId": "5c6431f49132f3266097476d"

    },
    {
      "groupMajorId": "5c654a2caf24142948ec65a6",
      "major": "5c6541d6635e0509c8c1ab6b",
      "index": "000018",
      "firstName": "Helena",
      "lastName": "Skrzypkowska",
      "pesel": "00000000000",
      "departmentId": "5c6431f49132f3266097476d"

    },
    {
      "groupMajorId": "5c654a2caf24142948ec65a6",
      "major": "5c6541d6635e0509c8c1ab6b",
      "index": "000019",
      "firstName": "Beata",
      "lastName": "Czyżowska",
      "pesel": "00000000000",
      "departmentId": "5c6431f49132f3266097476d"

    },
    {
      "groupMajorId": "5c654a2caf24142948ec65a6",
      "major": "5c6541d6635e0509c8c1ab6b",
      "index": "000020",
      "firstName": "Aleksandra",
      "lastName": "Koralewska",
      "pesel": "00000000000",
      "departmentId": "5c6431f49132f3266097476d"

    },
    {
      "groupMajorId": "5c654a2caf24142948ec65a6",
      "major": "5c6541d6635e0509c8c1ab6b",
      "index": "000021",
      "firstName": "Marta",
      "lastName": "Sroga",
      "pesel": "00000000000",
      "departmentId": "5c6431f49132f3266097476d"

    },
    {
      "groupMajorId": "5c654a2caf24142948ec65a6",
      "major": "5c6541d6635e0509c8c1ab6b",
      "index": "000021",
      "firstName": "Dorota",
      "lastName": "Psiuk",
      "pesel": "00000000000",
      "departmentId": "5c6431f49132f3266097476d"

    },
    {
      "groupMajorId": "5c654a2caf24142948ec65a6",
      "major": "5c6541d6635e0509c8c1ab6b",
      "index": "000022",
      "firstName": "Marianna",
      "lastName": "Kołacz",
      "pesel": "00000000000",
      "departmentId": "5c6431f49132f3266097476d"

    },
    {
      "groupMajorId": "5c654a2caf24142948ec65a6",
      "major": "5c6541d6635e0509c8c1ab6b",
      "index": "000023",
      "firstName": "Grażyna",
      "lastName": "Dulińska",
      "pesel": "00000000000",
      "departmentId": "5c6431f49132f3266097476d"

    },
    {
      "groupMajorId": "5c654a2caf24142948ec65a6",
      "major": "5c6541d6635e0509c8c1ab6b",
      "index": "000024",
      "firstName": "Jolanta",
      "lastName": "Wrzosek",
      "pesel": "00000000000",
      "departmentId": "5c6431f49132f3266097476d"

    },
    {
      "groupMajorId": "5c654a2caf24142948ec65a6",
      "major": "5c6541d6635e0509c8c1ab6b",
      "index": "000025",
      "firstName": "Stanisław",
      "lastName": "Szymaszek",
      "pesel": "00000000000",
      "departmentId": "5c6431f49132f3266097476d"

    },
    {
      "groupMajorId": "5c654a2caf24142948ec65a6",
      "major": "5c6541d6635e0509c8c1ab6b",
      "index": "000026",
      "firstName": "Iwona",
      "lastName": "Narkiewicz",
      "pesel": "00000000000",
      "departmentId": "5c6431f49132f3266097476d"

    },
    {
      "groupMajorId": "5c654a2caf24142948ec65a6",
      "major": "5c6541d6635e0509c8c1ab6b",
      "index": "000027",
      "firstName": "Karolina",
      "lastName": "Sucharska",
      "pesel": "00000000000",
      "departmentId": "5c6431f49132f3266097476d"

    },
    {
      "groupMajorId": "5c654a2caf24142948ec65a6",
      "major": "5c6541d6635e0509c8c1ab6b",
      "index": "000028",
      "firstName": "Bożena",
      "lastName": "Wiater",
      "pesel": "00000000000",
      "departmentId": "5c6431f49132f3266097476d"

    },
    {
      "groupMajorId": "5c654a2caf24142948ec65a6",
      "major": "5c6541d6635e0509c8c1ab6b",
      "index": "000029",
      "firstName": "Justyna",
      "lastName": "Kierzek",
      "pesel": "00000000000",
      "departmentId": "5c6431f49132f3266097476d"

    },
    {
      "groupMajorId": "5c654a2caf24142948ec65a6",
      "major": "5c6541d6635e0509c8c1ab6b",
      "index": "000030",
      "firstName": "Urszula",
      "lastName": "Polus",
      "pesel": "00000000000",
      "departmentId": "5c6431f49132f3266097476d"

    },
    {
      "groupMajorId": "5c654a2caf24142948ec65a6",
      "major": "5c6541d6635e0509c8c1ab6b",
      "index": "000031",
      "firstName": "Jan",
      "lastName": "Gruca",
      "pesel": "00000000000",
      "departmentId": "5c6431f49132f3266097476d"

    },
    {
      "groupMajorId": "5c654a2caf24142948ec65a6",
      "major": "5c6541d6635e0509c8c1ab6b",
      "index": "000032",
      "firstName": "Andrzej",
      "lastName": "Rygielski",
      "pesel": "00000000000",
      "departmentId": "5c6431f49132f3266097476d"

    },
    {
      "groupMajorId": "5c654a2caf24142948ec65a6",
      "major": "5c6541d6635e0509c8c1ab6b",
      "index": "000033",
      "firstName": "Piotr",
      "lastName": "Szymański",
      "pesel": "00000000000",
      "departmentId": "5c6431f49132f3266097476d"

    },
    {
      "groupMajorId": "5c654a2caf24142948ec65a6",
      "major": "5c6541d6635e0509c8c1ab6b",
      "index": "000034",
      "firstName": "Krzysztof",
      "lastName": "Boruta",
      "pesel": "00000000000",
      "departmentId": "5c6431f49132f3266097476d"

    },
    {
      "groupMajorId": "5c654a2caf24142948ec65a6",
      "major": "5c6541d6635e0509c8c1ab6b",
      "index": "000035",
      "firstName": "Stanisław",
      "lastName": "Jachowicz",
      "pesel": "00000000000",
      "departmentId": "5c6431f49132f3266097476d"

    },
    {
      "groupMajorId": "5c654a2caf24142948ec65a6",
      "major": "5c6541d6635e0509c8c1ab6b",
      "index": "000036",
      "firstName": "Paweł",
      "lastName": "Pawełczyk",
      "pesel": "00000000000",
      "departmentId": "5c6431f49132f3266097476d"

    },
    {
      "groupMajorId": "5c654a2caf24142948ec65a6",
      "major": "5c6541d6635e0509c8c1ab6b",
      "index": "000037",
      "firstName": "Józef",
      "lastName": "Iwaszkiewicz",
      "pesel": "00000000000",
      "departmentId": "5c6431f49132f3266097476d"

    },
    {
      "groupMajorId": "5c654a2caf24142948ec65a6",
      "major": "5c6541d6635e0509c8c1ab6b",
      "index": "000038",
      "firstName": "Marcin",
      "lastName": "Mądra",
      "pesel": "00000000000",
      "departmentId": "5c6431f49132f3266097476d"

    },
    {
      "groupMajorId": "5c654a2caf24142948ec65a6",
      "major": "5c6541d6635e0509c8c1ab6b",
      "index": "000039",
      "firstName": "Marek",
      "lastName": "Toboła",
      "pesel": "00000000000",
      "departmentId": "5c6431f49132f3266097476d"

    },
    {
      "groupMajorId": "5c654a2caf24142948ec65a6",
      "major": "5c6541d6635e0509c8c1ab6b",
      "index": "000040",
      "firstName": "Kamil",
      "lastName": "Kęsy",
      "pesel": "00000000000",
      "departmentId": "5c6431f49132f3266097476d"

    },
    {
      "groupMajorId": "5c654a2caf24142948ec65a6",
      "major": "5c6541d6635e0509c8c1ab6b",
      "index": "000041",
      "firstName": "Michał",
      "lastName": "Łukasiewicz",
      "pesel": "00000000000",
      "departmentId": "5c6431f49132f3266097476d"

    },
    {
      "groupMajorId": "5c654a2caf24142948ec65a6",
      "major": "5c6541d6635e0509c8c1ab6b",
      "index": "000042",
      "firstName": "Wojciech",
      "lastName": "Pawlaczyk",
      "pesel": "00000000000",
      "departmentId": "5c6431f49132f3266097476d"

    },
    {
      "groupMajorId": "5c654a2caf24142948ec65a6",
      "major": "5c6541d6635e0509c8c1ab6b",
      "index": "000043",
      "firstName": "Grzegorz",
      "lastName": "Dubas",
      "pesel": "00000000000",
      "departmentId": "5c6431f49132f3266097476d"

    },
    {
      "groupMajorId": "5c654a2caf24142948ec65a6",
      "major": "5c6541d6635e0509c8c1ab6b",
      "index": "000044",
      "firstName": "Łukasz",
      "lastName": "Banasiak",
      "pesel": "00000000000",
      "departmentId": "5c6431f49132f3266097476d"

    },
    {
      "groupMajorId": "5c654a2caf24142948ec65a6",
      "major": "5c6541d6635e0509c8c1ab6b",
      "index": "000045",
      "firstName": "Rafał",
      "lastName": "Moskała",
      "pesel": "00000000000",
      "departmentId": "5c6431f49132f3266097476d"

    },
    {
      "groupMajorId": "5c654a2caf24142948ec65a6",
      "major": "5c6541d6635e0509c8c1ab6b",
      "index": "000046",
      "firstName": "Dariusz",
      "lastName": "Matejko",
      "pesel": "00000000000",
      "departmentId": "5c6431f49132f3266097476d"

    },
    {
      "groupMajorId": "5c654a2caf24142948ec65a6",
      "major": "5c6541d6635e0509c8c1ab6b",
      "index": "000047",
      "firstName": "Mariusz",
      "lastName": "Robak",
      "pesel": "00000000000",
      "departmentId": "5c6431f49132f3266097476d"

    },
    {
      "groupMajorId": "5c654a2caf24142948ec65a6",
      "major": "5c6541d6635e0509c8c1ab6b",
      "index": "000048",
      "firstName": "Maciej",
      "lastName": "Kowal",
      "pesel": "00000000000",
      "departmentId": "5c6431f49132f3266097476d"

    }
  ]
}
